\relax 
\citation{mcb}
\citation{example}
\@writefile{toc}{\contentsline {section}{\numberline {1. }序論}{1}}
\@writefile{toc}{\contentsline {section}{\numberline {2. }超精密手法の原理}{1}}
\@writefile{toc}{\contentsline {subsection}{\numberline {2.1}基礎精密手法の定式化}{1}}
\@writefile{toc}{\contentsline {subsection}{\numberline {2.2}発展超精密手法の構築}{1}}
\@writefile{toc}{\contentsline {section}{\numberline {3. }実験方法}{1}}
\bibstyle{junsrt}
\bibdata{summary_bib}
\bibcite{mcb}{1}
\bibcite{example}{2}
\bibcite{example2}{3}
\@writefile{lof}{\contentsline {figure}{\numberline {1}{\ignorespaces 超精密システムの解析モデル}}{2}}
\newlabel{kaiseki1}{{1}{2}}
\@writefile{lot}{\contentsline {table}{\numberline {1}{\ignorespaces 超精密システムの実験条件}}{2}}
\newlabel{condition}{{1}{2}}
\@writefile{toc}{\contentsline {section}{\numberline {4. }実験結果と考察}{2}}
\@writefile{lof}{\contentsline {figure}{\numberline {2}{\ignorespaces 超精密システムの実験装置}}{2}}
\newlabel{system}{{2}{2}}
\@writefile{lof}{\contentsline {figure}{\numberline {3}{\ignorespaces 超精密システムの実験結果}}{2}}
\newlabel{result}{{3}{2}}
\@writefile{toc}{\contentsline {section}{\numberline {5. }結論}{2}}
